<svg width="1110" height="712" viewBox="0 0 1110 712" fill="none" xmlns="http://www.w3.org/2000/svg">
<circle cx="1105" cy="429" r="5" fill="#00ABE6"/>
<circle cx="921" cy="280" r="5" fill="#00ABE6"/>
<path opacity="0.3" d="M920 279.939L999 279.939L999 223.464M999 223.464L1105 223.464L1105 357.155L1105 424M999 223.464L999 95.7701L999 31.9234L999 1.26404e-06" stroke="#00ABE6"/>
<circle cx="55" cy="433" r="25" fill="#00D2DC"/>
<circle cx="15" cy="550" r="15" fill="#00ABE6"/>
<circle cx="120" cy="702" r="10" fill="#00D2DC"/>
</svg>
