<svg width="28" height="27" viewBox="0 0 28 27" fill="none" xmlns="http://www.w3.org/2000/svg">
<g clip-path="url(#clip0)">
<path d="M13.982 0C6.5513 0 0.505859 6.05613 0.505859 13.5C0.505859 20.9433 6.5513 27 13.982 27C21.4122 27 27.4582 20.9433 27.4582 13.5C27.4582 6.05613 21.4133 0 13.982 0ZM19.9938 10.4102C19.9998 10.544 20.003 10.6788 20.003 10.8137C20.003 14.9198 16.884 19.6529 11.1772 19.6529C9.42555 19.6529 7.79491 19.1401 6.42265 18.2581C6.66529 18.2869 6.91227 18.3016 7.16252 18.3016C8.6162 18.3016 9.95318 17.8046 11.0149 16.9715C9.65788 16.9465 8.51198 16.0482 8.11734 14.8132C8.30625 14.8491 8.50112 14.8692 8.70034 14.8692C8.98315 14.8692 9.25782 14.8323 9.51783 14.761C8.09889 14.4761 7.03007 13.2205 7.03007 11.7142C7.03007 11.7012 7.03007 11.6876 7.03061 11.6751C7.44858 11.9073 7.92681 12.0476 8.4349 12.0633C7.60329 11.507 7.05558 10.5554 7.05558 9.47762C7.05558 8.90774 7.20811 8.37374 7.47518 7.91479C9.00432 9.79519 11.2907 11.0318 13.868 11.1623C13.8148 10.9344 13.7882 10.6979 13.7882 10.4537C13.7882 8.73808 15.1768 7.34653 16.8894 7.34653C17.7818 7.34653 18.5868 7.72392 19.1535 8.32752C19.8608 8.18831 20.5231 7.93056 21.124 7.57329C20.8905 8.29924 20.4004 8.90774 19.7582 9.29274C20.3863 9.2177 20.9855 9.0513 21.5398 8.80387C21.1261 9.42596 20.6001 9.97356 19.9938 10.4102Z" fill="black"/>
</g>
<defs>
<clipPath id="clip0">
<rect x="0.505859" width="26.9523" height="27" rx="4" fill="white"/>
</clipPath>
</defs>
</svg>
