<svg width="206" height="184" viewBox="0 0 206 184" fill="none" xmlns="http://www.w3.org/2000/svg">
<path opacity="0.3" d="M1 0L0.999998 53M24 180L24 106L0.999995 106L0.999998 53M0.999998 53L100.5 53L100.5 20L205.5 20" stroke="white"/>
<circle cx="24" cy="179" r="5" fill="white"/>
</svg>
