<svg width="175" height="844" viewBox="0 0 175 844" fill="none" xmlns="http://www.w3.org/2000/svg">
<path opacity="0.3" d="M170 834L170 730L170 678L170 612L170 626L106.5 626L43 626" stroke="#00ABE6"/>
<circle cx="170" cy="839" r="5" transform="rotate(90 170 839)" fill="#00ABE6"/>
<path opacity="0.3" d="M0 0.999995H154V224" stroke="#00ABE6"/>
<circle cx="154" cy="224" r="5" fill="#00ABE6"/>
</svg>
