<svg width="1158" height="481" viewBox="0 0 1158 481" fill="none" xmlns="http://www.w3.org/2000/svg">
<circle cx="64.1007" cy="184.408" r="15" transform="rotate(-105 64.1007 184.408)" fill="#00D2DC"/>
<circle cx="12.2469" cy="111.991" r="10" transform="rotate(-105 12.2469 111.991)" fill="#00ABE6"/>
<circle cx="74.9535" cy="6.12371" r="5" transform="rotate(-105 74.9535 6.12371)" fill="#00D2DC"/>
<circle r="10.5" transform="matrix(-1 8.74228e-08 0.000637755 1 1025.51 309.5)" fill="#00ABE6"/>
<circle r="22.5" transform="matrix(-1 8.74228e-08 0.000637755 1 1134.51 458.5)" fill="#00D2DC"/>
</svg>
