<svg width="1220" height="1508" viewBox="0 0 1220 1508" fill="none" xmlns="http://www.w3.org/2000/svg">
<path opacity="0.3" d="M172 1H326V309.5" stroke="#00ABE6"/>
<circle cx="326" cy="310" r="5" fill="#00ABE6"/>
<circle cx="762" cy="954" r="5" fill="#00ABE6"/>
<circle cx="1215" cy="1503" r="5" fill="#00ABE6"/>
<path opacity="0.3" d="M326 88L432 88L432 65L506 65" stroke="#00ABE6"/>
<path opacity="0.3" d="M326 263L220 263L220 400.5L4.99999 400.5L4.99999 531" stroke="#00ABE6"/>
<circle cx="505" cy="65" r="5" transform="rotate(-90 505 65)" fill="#00ABE6"/>
<circle cx="5" cy="531" r="5" transform="rotate(-90 5 531)" fill="#00ABE6"/>
<path opacity="0.3" d="M1025.5 735.5H1130V906.5H761.5V953.5" stroke="#00ABE6"/>
<path opacity="0.3" d="M1130 834H1215V1503" stroke="#00ABE6"/>
</svg>
