<svg width="1151" height="316" viewBox="0 0 1151 316" fill="none" xmlns="http://www.w3.org/2000/svg">
<circle cx="16.5" cy="299.5" r="16.5" fill="#00ABE6"/>
<circle cx="534.5" cy="16.5" r="16.5" fill="#00ABE6"/>
<circle cx="1141" cy="214" r="10" fill="#00ABE6"/>
</svg>
